[2017-01-05 22:24:49] php.CRITICAL: Fatal Error: Class 'FOS\UserBundle\Model\User' not found {"exception":"[object] (Symfony\\Component\\Debug\\Exception\\FatalErrorException(code: 0): Error: Class 'FOS\\UserBundle\\Model\\User' not found at C:\\Users\\Nicola\\Desktop\\Projects\\symfony_projects\\recipe_book\\src\\RecipeBook\\CoreBundle\\Entity\\User.php:21)"} []
[2017-01-05 22:24:55] php.CRITICAL: Fatal Error: Class 'FOS\UserBundle\Model\User' not found {"exception":"[object] (Symfony\\Component\\Debug\\Exception\\FatalErrorException(code: 0): Error: Class 'FOS\\UserBundle\\Model\\User' not found at C:\\Users\\Nicola\\Desktop\\Projects\\symfony_projects\\recipe_book\\src\\RecipeBook\\CoreBundle\\Entity\\User.php:21)"} []
[2017-01-05 22:25:00] php.CRITICAL: Fatal Error: Class 'FOS\UserBundle\Model\User' not found {"exception":"[object] (Symfony\\Component\\Debug\\Exception\\FatalErrorException(code: 0): Error: Class 'FOS\\UserBundle\\Model\\User' not found at C:\\Users\\Nicola\\Desktop\\Projects\\symfony_projects\\recipe_book\\src\\RecipeBook\\CoreBundle\\Entity\\User.php:21)"} []
